Homogenous null model
…
Task: Using the data set DouglasFir_LiveDead_OGN.dat, calculate the O-ring statistic and the L-function. Here, pattern 1 gives the locations of living trees and pattern 2 gives the locations of dead trees. Comparing the univariate measures \(O_{11}(r)\) and \(L_{11}(r)\), how do they differ?

First, we need to import the data using read_delim() (make sure the data is in your working direction. See ?getwd()/?setwd() for help). The columns are separated by a semicolon. By using read_delim(), the class of the data is automatically a tibble (an ‘advanced’ version of a data.frame. For more information see ?tibble).

  douglas_fir <- read_delim(file = "Data/DouglasFir_LiveDead_OGN.txt",
                            delim = ";")
  
  class(douglas_fir)
## [1] "spec_tbl_df" "tbl_df"      "tbl"         "data.frame"

Print the data. The tibble contains 668 rows (one for each tree) and 3 columns (x-coordinate, y-coordinate and the marks).

  print(douglas_fir, collapse = TRUE)

## # A tibble: 668 x 3
##        x      y  mark
##    <dbl>  <dbl> <dbl>
##  1  69.9 43.9       1
##  2  10.2 60.1       1
##  3  50.4 25.5       1
##  4  40.1  1.03      1
##  5  40.7 15.7       1
##  6  54.2  0.382     1
##  7  41.8 46.3       1
##  8  59.8 28.0       1
##  9  75.7 69.2       1
## 10  48.6 14.1       1
## # … with 658 more rows
…
